{
  "images": [
    {
      "filename": "Icon-App-29x29@1x.png",
      "size": "29x29",
      "scale": "1x",
      "idiom": "iphone"
    },
    {
      "filename": "Icon-App-29x29@2x.png",
      "size": "29x29",
      "scale": "2x",
      "idiom": "iphone"
    },
    {
      "filename": "Icon-App-29x29@3x.png",
      "size": "29x29",
      "scale": "3x",
      "idiom": "iphone"
    },
    {
      "filename": "Icon-App-40x40@2x.png",
      "size": "40x40",
      "scale": "2x",
      "idiom": "iphone"
    },
    {
      "filename": "Icon-App-60x60@2x.png",
      "size": "40x40",
      "scale": "3x",
      "idiom": "iphone"
    },
    {
      "filename": "Icon-App-57x57@1x.png",
      "size": "57x57",
      "scale": "1x",
      "idiom": "iphone"
    },
    {
      "filename": "Icon-App-57x57@2x.png",
      "size": "57x57",
      "scale": "2x",
      "idiom": "iphone"
    },
    {
      "filename": "Icon-App-60x60@2x.png",
      "size": "60x60",
      "scale": "2x",
      "idiom": "iphone"
    },
    {
      "filename": "Icon-App-60x60@3x.png",
      "size": "60x60",
      "scale": "3x",
      "idiom": "iphone"
    },
    {
      "filename": "Icon-App-29x29@1x.png",
      "size": "29x29",
      "scale": "1x",
      "idiom": "ipad"
    },
    {
      "filename": "Icon-App-29x29@2x.png",
      "size": "29x29",
      "scale": "2x",
      "idiom": "ipad"
    },
    {
      "filename": "Icon-App-20x20@2x.png",
      "size": "40x40",
      "scale": "1x",
      "idiom": "ipad"
    },
    {
      "filename": "Icon-App-40x40@2x.png",
      "size": "40x40",
      "scale": "2x",
      "idiom": "ipad"
    },
    {
      "filename": "Icon-Small-50x50@1x.png",
      "size": "50x50",
      "scale": "1x",
      "idiom": "ipad"
    },
    {
      "filename": "Icon-Small-50x50@2x.png",
      "size": "50x50",
      "scale": "2x",
      "idiom": "ipad"
    },
    {
      "filename": "Icon-App-83.5x83.5@2x.png",
      "size": "83.5x83.5",
      "scale": "2x",
      "idiom": "ipad"
    },
    {
      "filename": "Icon-App-72x72@1x.png",
      "size": "72x72",
      "scale": "1x",
      "idiom": "ipad"
    },
    {
      "filename": "Icon-App-72x72@2x.png",
      "size": "72x72",
      "scale": "2x",
      "idiom": "ipad"
    },
    {
      "filename": "Icon-App-76x76@1x.png",
      "size": "76x76",
      "scale": "1x",
      "idiom": "ipad"
    },
    {
      "filename": "Icon-App-76x76@2x.png",
      "size": "76x76",
      "scale": "2x",
      "idiom": "ipad"
    },
    {
      "role": "notificationCenter",
      "size": "24x24",
      "subtype": "38mm",
      "scale": "2x",
      "idiom": "watch"
    },
    {
      "role": "notificationCenter",
      "size": "27.5x27.5",
      "subtype": "42mm",
      "scale": "2x",
      "idiom": "watch"
    },
    {
      "role": "companionSettings",
      "size": "29x29",
      "scale": "2x",
      "idiom": "watch"
    },
    {
      "role": "companionSettings",
      "size": "29x29",
      "scale": "3x",
      "idiom": "watch"
    },
    {
      "role": "appLauncher",
      "size": "40x40",
      "subtype": "38mm",
      "scale": "2x",
      "idiom": "watch"
    },
    {
      "role": "longLook",
      "size": "44x44",
      "subtype": "42mm",
      "scale": "2x",
      "idiom": "watch"
    },
    {
      "role": "quickLook",
      "size": "86x86",
      "subtype": "38mm",
      "scale": "2x",
      "idiom": "watch"
    },
    {
      "role": "quickLook",
      "size": "98x98",
      "subtype": "42mm",
      "scale": "2x",
      "idiom": "watch"
    },
    {
      "size": "16x16",
      "scale": "1x",
      "idiom": "mac"
    },
    {
      "size": "16x16",
      "scale": "2x",
      "idiom": "mac"
    },
    {
      "size": "32x32",
      "scale": "1x",
      "idiom": "mac"
    },
    {
      "size": "32x32",
      "scale": "2x",
      "idiom": "mac"
    },
    {
      "size": "128x128",
      "scale": "1x",
      "idiom": "mac"
    },
    {
      "size": "128x128",
      "scale": "2x",
      "idiom": "mac"
    },
    {
      "size": "256x256",
      "scale": "1x",
      "idiom": "mac"
    },
    {
      "size": "256x256",
      "scale": "2x",
      "idiom": "mac"
    },
    {
      "size": "512x512",
      "scale": "1x",
      "idiom": "mac"
    },
    {
      "size": "512x512",
      "scale": "2x",
      "idiom": "mac"
    }
  ],
  "info": {
    "version": 1,
    "author": "xcode"
  }
}